<?xml version="1.0" encoding="UTF-8" standalone="no"?>
<!-- Created with Inkscape (http://www.inkscape.org/) -->

<svg
   xmlns:dc="http://purl.org/dc/elements/1.1/"
   xmlns:cc="http://creativecommons.org/ns#"
   xmlns:rdf="http://www.w3.org/1999/02/22-rdf-syntax-ns#"
   xmlns:svg="http://www.w3.org/2000/svg"
   xmlns="http://www.w3.org/2000/svg"
   xmlns:sodipodi="http://sodipodi.sourceforge.net/DTD/sodipodi-0.dtd"
   xmlns:inkscape="http://www.inkscape.org/namespaces/inkscape"
   width="10cm"
   height="12.5cm"
   viewBox="0 0 354.33072 442.91339"
   id="svg2"
   version="1.1"
   inkscape:version="0.91 r13725"
   sodipodi:docname="get_http.svg"
   inkscape:export-filename="/media/h4ck3r/GrosDisque/Fichiersdetravail/Projets_Libres/LIVRESENCOURS/manueldumo/images/get_http.png"
   inkscape:export-xdpi="300"
   inkscape:export-ydpi="300">
  <defs
     id="defs4" />
  <sodipodi:namedview
     id="base"
     pagecolor="#ffffff"
     bordercolor="#cb01c6"
     borderopacity="1"
     inkscape:pageopacity="0.0"
     inkscape:pageshadow="2"
     inkscape:zoom="1.4"
     inkscape:cx="173.69315"
     inkscape:cy="275.77149"
     inkscape:document-units="px"
     inkscape:current-layer="layer1"
     showgrid="false"
     borderlayer="true"
     width="296mm"
     inkscape:window-width="1920"
     inkscape:window-height="1026"
     inkscape:window-x="0"
     inkscape:window-y="0"
     inkscape:window-maximized="1"
     units="cm" />
  <metadata
     id="metadata7">
    <rdf:RDF>
      <cc:Work
         rdf:about="">
        <dc:format>image/svg+xml</dc:format>
        <dc:type
           rdf:resource="http://purl.org/dc/dcmitype/StillImage" />
        <dc:title></dc:title>
      </cc:Work>
    </rdf:RDF>
  </metadata>
  <g
     inkscape:label="Calque 1"
     inkscape:groupmode="layer"
     id="layer1"
     transform="translate(0,-609.44882)">
    <rect
       style="opacity:1;fill:#ffffff;fill-opacity:1;stroke:none;stroke-width:1.5;stroke-linejoin:round;stroke-miterlimit:4;stroke-dasharray:none;stroke-dashoffset:0;stroke-opacity:1"
       id="rect4307"
       width="449.28571"
       height="540.71429"
       x="-72.14286"
       y="525.21936" />
    <rect
       style="opacity:1;fill:#cccccc;fill-opacity:1;stroke:none;stroke-width:1.5;stroke-linejoin:round;stroke-miterlimit:4;stroke-dasharray:none;stroke-dashoffset:0;stroke-opacity:1"
       id="rect4410-1"
       width="211.46021"
       height="236.14241"
       x="62.718803"
       y="813.55646" />
    <rect
       style="opacity:1;fill:#cccccc;fill-opacity:1;stroke:none;stroke-width:1.5;stroke-linejoin:round;stroke-miterlimit:4;stroke-dasharray:none;stroke-dashoffset:0;stroke-opacity:1"
       id="rect4410"
       width="199.02945"
       height="117.12659"
       x="76.167862"
       y="614.88428" />
    <rect
       style="opacity:1;fill:#f9f9f9;fill-opacity:1;stroke:#000000;stroke-width:0.39190358;stroke-linejoin:round;stroke-miterlimit:4;stroke-dasharray:none;stroke-dashoffset:0;stroke-opacity:1"
       id="rect4136"
       width="63.565136"
       height="54.057526"
       x="11.940219"
       y="744.88959"
       ry="4.3772764" />
    <path
       style="fill:none;fill-rule:evenodd;stroke:#000000;stroke-width:0.39190358;stroke-linecap:butt;stroke-linejoin:miter;stroke-miterlimit:4;stroke-dasharray:none;stroke-opacity:1"
       d="m 12.076026,751.00158 63.565151,0"
       id="path4138"
       inkscape:connector-curvature="0" />
    <path
       style="opacity:1;fill:#1a1a1a;fill-opacity:1;stroke:#000000;stroke-width:0.39190358;stroke-linejoin:round;stroke-miterlimit:4;stroke-dasharray:none;stroke-dashoffset:0;stroke-opacity:1"
       id="path4144"
       sodipodi:type="arc"
       sodipodi:cx="16.592165"
       sodipodi:cy="747.91162"
       sodipodi:rx="1.3921853"
       sodipodi:ry="1.3921853"
       sodipodi:start="0"
       sodipodi:end="6.2742841"
       sodipodi:open="true"
       d="m 17.98435,747.91162 a 1.3921853,1.3921853 0 0 1 -1.389087,1.39218 1.3921853,1.3921853 0 0 1 -1.39527,-1.38598 1.3921853,1.3921853 0 0 1 1.382878,-1.39835 1.3921853,1.3921853 0 0 1 1.401424,1.37976" />
    <path
       style="opacity:1;fill:#666666;fill-opacity:1;stroke:#000000;stroke-width:0.39190358;stroke-linejoin:round;stroke-miterlimit:4;stroke-dasharray:none;stroke-dashoffset:0;stroke-opacity:1"
       id="path4144-3"
       sodipodi:type="arc"
       sodipodi:cx="20.497078"
       sodipodi:cy="747.87769"
       sodipodi:rx="1.3921853"
       sodipodi:ry="1.3921853"
       sodipodi:start="0"
       sodipodi:end="6.2742841"
       sodipodi:open="true"
       d="m 21.889263,747.87769 a 1.3921853,1.3921853 0 0 1 -1.389087,1.39218 1.3921853,1.3921853 0 0 1 -1.39527,-1.38599 1.3921853,1.3921853 0 0 1 1.382878,-1.39835 1.3921853,1.3921853 0 0 1 1.401424,1.37976" />
    <rect
       style="opacity:1;fill:#808080;fill-opacity:1;stroke:none;stroke-width:2.06100011;stroke-linejoin:round;stroke-miterlimit:4;stroke-dasharray:none;stroke-dashoffset:0;stroke-opacity:1"
       id="rect4161"
       width="15.144787"
       height="18.107897"
       x="16.714462"
       y="756.06244"
       ry="0" />
    <path
       style="fill:none;fill-rule:evenodd;stroke:#000000;stroke-width:0.48888826;stroke-linecap:butt;stroke-linejoin:miter;stroke-miterlimit:4;stroke-dasharray:none;stroke-opacity:1"
       d="m 37.548761,760.90449 31.935749,0"
       id="path4165"
       inkscape:connector-curvature="0" />
    <path
       style="fill:none;fill-rule:evenodd;stroke:#000000;stroke-width:0.48888826;stroke-linecap:butt;stroke-linejoin:miter;stroke-miterlimit:4;stroke-dasharray:none;stroke-opacity:1"
       d="m 37.548761,767.98303 31.935749,0"
       id="path4165-6"
       inkscape:connector-curvature="0" />
    <path
       style="fill:none;fill-rule:evenodd;stroke:#000000;stroke-width:0.48888826;stroke-linecap:butt;stroke-linejoin:miter;stroke-miterlimit:4;stroke-dasharray:none;stroke-opacity:1"
       d="m 37.548761,775.06159 31.935749,0"
       id="path4165-7"
       inkscape:connector-curvature="0" />
    <path
       style="fill:none;fill-rule:evenodd;stroke:#000000;stroke-width:0.48888826;stroke-linecap:butt;stroke-linejoin:miter;stroke-miterlimit:4;stroke-dasharray:none;stroke-opacity:1"
       d="m 15.983922,782.14012 53.500588,0"
       id="path4165-7-5"
       inkscape:connector-curvature="0" />
    <path
       style="fill:none;fill-rule:evenodd;stroke:#000000;stroke-width:0.48888826;stroke-linecap:butt;stroke-linejoin:miter;stroke-miterlimit:4;stroke-dasharray:none;stroke-opacity:1"
       d="m 15.983922,789.21866 53.500588,0"
       id="path4165-7-5-3"
       inkscape:connector-curvature="0" />
    <g
       transform="matrix(0.36362898,0,0,0.38983064,210.51065,657.92481)"
       id="g4309-69">
      <path
         transform="matrix(0.28526239,0,0,0.28526239,109.7361,135.2946)"
         style="fill:#666666;fill-opacity:1;stroke:none;stroke-width:81.80000305;stroke-miterlimit:4;stroke-dasharray:none;stroke-opacity:1"
         d="m 486.8828,298.94106 2.3751,-40.50071 201.4238,-0.80446 c 112.0903,-0.44767 203.95662,3.69383 204.14935,3.95408 0.19309,0.26027 -24.90015,14.18058 -55.76235,36.61828 l -56.1131,40.79581 -148.0364,0.0362 -148.0364,0.0362 z"
         id="path4178-3"
         inkscape:connector-curvature="0"
         sodipodi:nodetypes="ccscscccc" />
      <path
         transform="matrix(0.28526239,0,0,0.28526239,109.7361,135.2946)"
         style="fill:#1a1a1a;fill-opacity:1;stroke:none;stroke-width:81.80000305;stroke-miterlimit:4;stroke-dasharray:none;stroke-opacity:1"
         d="m 773.302,871.66069 2.5838,-38.01643 36.4922,-3.05552 c 14.6295,-1.22498 38.281,4.38798 52.4674,4.64363 l 27.50866,-0.22974 -52.79996,33.58007 c -28.19593,17.93224 -63.0757,35.68859 -52.4676,33.37283 -24.096,1.84705 -15.1417,-10.32554 -13.7845,-30.29484 z"
         id="path4184-7"
         inkscape:connector-curvature="0"
         sodipodi:nodetypes="scsscscs" />
      <path
         transform="matrix(0.28526239,0,0,0.28526239,109.7361,135.2946)"
         style="fill:#666666;fill-opacity:1;stroke:none;stroke-width:81.80000305;stroke-miterlimit:4;stroke-dasharray:none;stroke-opacity:1"
         d="m 367.7108,338.76183 c 2.1464,-1.96165 120.8822,-80.51163 121.7007,-80.51163 0.5385,0 0.9791,17.7466 0.9791,39.43689 l 0,40.89847 -14.0735,-0.32845 c -14.7942,-0.3453 -109.8373,1.62951 -108.6063,0.50472 z"
         id="path4180-4"
         inkscape:connector-curvature="0"
         sodipodi:nodetypes="csscsc" />
      <path
         transform="matrix(0.28526239,0,0,0.28526239,109.7361,135.2946)"
         style="fill:#999999;fill-opacity:1;stroke:none;stroke-width:81.80000305;stroke-miterlimit:4;stroke-dasharray:none;stroke-opacity:1"
         d="m 367.691,620.89085 0,-282.86314 61.8665,0 61.8666,0 0,245.92038 0,245.92034 -58.1837,35.06917 c -32.0012,19.288 -59.8411,35.91225 -61.8665,36.94276 l -3.6829,1.87369 0,-282.8632 z"
         id="path4172-5"
         inkscape:connector-curvature="0" />
      <path
         transform="matrix(0.28526239,0,0,0.28526239,109.7361,135.2946)"
         style="fill:#999999;fill-opacity:1;stroke:none;stroke-width:81.80000305;stroke-miterlimit:4;stroke-dasharray:none;stroke-opacity:1"
         d="m 490.4641,582.84299 0,-244.81528 143.2352,0 143.2351,0 0,244.81528 0,244.81535 -143.2351,0 -143.2352,0 0,-244.81535 z"
         id="path4174-2"
         inkscape:connector-curvature="0" />
      <path
         transform="matrix(0.28526239,0,0,0.28526239,109.7361,135.2946)"
         style="fill:#999999;fill-opacity:1;stroke:none;stroke-width:81.80000305;stroke-miterlimit:4;stroke-dasharray:none;stroke-opacity:1"
         d="m 378.1017,895.63367 c 6.1848,-4.1945 31.8831,-21.32458 57.1073,-38.0668 l 45.8623,-30.44051 147.9315,0 147.9316,0 0,37.0921 0,37.09199 -80.7181,0 c -44.395,0 -136.6626,0.43879 -205.0392,0.97488 l -124.3208,0.97471 11.2454,-7.62637 z"
         id="path4176-5"
         inkscape:connector-curvature="0" />
      <path
         transform="matrix(0.28526239,0,0,0.28526239,109.7361,135.2946)"
         style="fill:#1a1a1a;fill-opacity:1;stroke:none;stroke-width:81.80000305;stroke-miterlimit:4;stroke-dasharray:none;stroke-opacity:1"
         d="m 776.4024,586.30571 0,-249.10388 54.3125,-35.47893 c 29.8719,-19.51341 55.85156,-36.33285 57.7327,-37.37654 l 3.42011,-1.89763 0,286.4804 0,286.48042 -57.73261,0 -57.7327,0 0,-249.10384 z"
         id="path4182-4"
         inkscape:connector-curvature="0" />
      <ellipse
         ry="19.058737"
         rx="17.953882"
         cy="265.22"
         cx="245.55388"
         id="path4159-7"
         style="fill:#1a1a1a;fill-opacity:1;stroke:none;stroke-width:81.80000305;stroke-miterlimit:4;stroke-dasharray:none;stroke-opacity:1" />
      <path
         inkscape:connector-curvature="0"
         id="path4165-44"
         d="m 245.41016,251.04189 -9.96094,8.10547 7.8125,7.51953 2.14844,-15.23437"
         style="fill:none;fill-rule:evenodd;stroke:#000000;stroke-width:1px;stroke-linecap:butt;stroke-linejoin:miter;stroke-opacity:1" />
      <path
         inkscape:connector-curvature="0"
         id="path4167-3"
         d="m 243.65234,266.8622 -9.08203,5.3711 8.88672,6.15234 z"
         style="fill:none;fill-rule:evenodd;stroke:#000000;stroke-width:1px;stroke-linecap:butt;stroke-linejoin:miter;stroke-opacity:1" />
      <path
         inkscape:connector-curvature="0"
         id="path4169-07"
         d="m 243.84766,266.66689 11.71875,-8.59375 -0.97657,11.32813 z"
         style="fill:none;fill-rule:evenodd;stroke:#000000;stroke-width:1px;stroke-linecap:butt;stroke-linejoin:miter;stroke-opacity:1" />
      <path
         inkscape:connector-curvature="0"
         id="path4171-8"
         d="m 239.54677,262.38585 c -1.79932,-1.73516 -3.25131,-3.19208 -3.22664,-3.2376 0.10489,-0.19358 8.35671,-6.84316 8.38753,-6.75895 0.0453,0.12365 -1.75767,13.00586 -1.83167,13.08762 -0.0318,0.0351 -1.52991,-1.35591 -3.32922,-3.09107 z"
         style="fill:#ffffff;fill-opacity:1;stroke:none;stroke-width:81.80000305;stroke-miterlimit:4;stroke-dasharray:none;stroke-opacity:1" />
      <path
         inkscape:connector-curvature="0"
         id="path4173-6"
         d="m 249.63699,267.61404 c -2.42645,-0.62069 -4.43748,-1.15428 -4.46895,-1.18575 -0.0315,-0.0315 2.14438,-1.67153 4.83524,-3.64457 2.69086,-1.97305 4.90527,-3.57286 4.9209,-3.55514 0.0435,0.0492 -0.77971,9.44335 -0.83077,9.48101 -0.0246,0.0181 -2.02997,-0.47487 -4.45642,-1.09555 z"
         style="fill:#ffffff;fill-opacity:1;stroke:none;stroke-width:81.80000305;stroke-miterlimit:4;stroke-dasharray:none;stroke-opacity:1" />
      <path
         inkscape:connector-curvature="0"
         id="path4175-8"
         d="m 239.22296,274.83482 c -2.03111,-1.40614 -3.67906,-2.56824 -3.6621,-2.58243 0.13057,-0.10924 7.52899,-4.45003 7.54577,-4.42724 0.0275,0.0374 -0.13005,8.91905 -0.16483,9.29004 -0.0252,0.26904 -0.12251,0.20938 -3.71884,-2.28037 z"
         style="fill:#ffffff;fill-opacity:1;stroke:none;stroke-width:81.80000305;stroke-miterlimit:4;stroke-dasharray:none;stroke-opacity:1" />
      <ellipse
         transform="matrix(0.76367807,-0.64559725,0.64559725,0.76367807,0,0)"
         ry="19.058737"
         rx="17.953882"
         cy="396.37949"
         cx="58.064587"
         id="path4159-3-8"
         style="fill:#1a1a1a;fill-opacity:1;stroke:none;stroke-width:81.80000305;stroke-miterlimit:4;stroke-dasharray:none;stroke-opacity:1" />
      <path
         inkscape:connector-curvature="0"
         id="path4165-6-4"
         d="m 290.98105,254.48526 -2.37408,12.62072 10.82082,0.69878 -8.19455,-13.02119"
         style="fill:none;fill-rule:evenodd;stroke:#000000;stroke-width:1px;stroke-linecap:butt;stroke-linejoin:miter;stroke-opacity:1" />
      <path
         inkscape:connector-curvature="0"
         id="path4167-7-3"
         d="m 299.85219,267.70173 -3.46818,9.96512 10.75853,-1.03883 z"
         style="fill:none;fill-rule:evenodd;stroke:#000000;stroke-width:1px;stroke-linecap:butt;stroke-linejoin:miter;stroke-opacity:1" />
      <path
         inkscape:connector-curvature="0"
         id="path4169-5-1"
         d="m 299.87526,267.42647 3.40125,-14.12845 6.56763,9.28152 z"
         style="fill:none;fill-rule:evenodd;stroke:#000000;stroke-width:1px;stroke-linecap:butt;stroke-linejoin:miter;stroke-opacity:1" />
      <path
         inkscape:connector-curvature="0"
         id="path4171-3-4"
         d="m 293.82694,266.93378 c -2.49432,-0.16347 -4.54375,-0.33868 -4.5543,-0.38937 -0.0449,-0.21555 1.96391,-10.62104 2.04181,-10.57663 0.11443,0.0652 7.05426,11.06704 7.05053,11.17725 -0.002,0.0473 -2.04373,-0.0478 -4.53804,-0.21125 z"
         style="fill:#ffffff;fill-opacity:1;stroke:none;stroke-width:81.80000305;stroke-miterlimit:4;stroke-dasharray:none;stroke-opacity:1" />
      <path
         inkscape:connector-curvature="0"
         id="path4173-5-9"
         d="m 304.90792,264.41222 c -2.25374,1.0925 -4.134,1.98332 -4.17835,1.97961 -0.0444,-0.004 0.55848,-2.66092 1.33964,-5.9049 0.78116,-3.24399 1.43942,-5.89534 1.46279,-5.8919 0.065,0.009 5.50116,7.71506 5.48648,7.77678 -0.007,0.0297 -1.85682,0.9479 -4.11056,2.04041 z"
         style="fill:#ffffff;fill-opacity:1;stroke:none;stroke-width:81.80000305;stroke-miterlimit:4;stroke-dasharray:none;stroke-opacity:1" />
      <path
         inkscape:connector-curvature="0"
         id="path4175-6-20"
         d="m 301.61667,276.64984 c -2.45891,0.23744 -4.46766,0.41388 -4.46387,0.39209 0.0292,-0.16772 2.8768,-8.25908 2.90432,-8.25251 0.0451,0.0108 5.6588,6.89524 5.87175,7.20101 0.15445,0.22173 0.0416,0.23899 -4.3122,0.65941 z"
         style="fill:#ffffff;fill-opacity:1;stroke:none;stroke-width:81.80000305;stroke-miterlimit:4;stroke-dasharray:none;stroke-opacity:1" />
      <rect
         ry="2.5390625"
         y="303.19034"
         x="223.82812"
         height="5.078125"
         width="71.09375"
         id="rect4210-6"
         style="fill:#000000;fill-opacity:1;stroke:none;stroke-width:81.80000305;stroke-miterlimit:4;stroke-dasharray:none;stroke-opacity:1" />
      <rect
         ry="2.5390625"
         y="314.32315"
         x="223.82812"
         height="5.078125"
         width="71.09375"
         id="rect4210-2-8"
         style="fill:#000000;fill-opacity:1;stroke:none;stroke-width:81.80000305;stroke-miterlimit:4;stroke-dasharray:none;stroke-opacity:1" />
      <rect
         ry="2.5390625"
         y="336.58878"
         x="223.82812"
         height="5.078125"
         width="71.09375"
         id="rect4210-9-9"
         style="fill:#000000;fill-opacity:1;stroke:none;stroke-width:81.80000305;stroke-miterlimit:4;stroke-dasharray:none;stroke-opacity:1" />
      <rect
         ry="2.5390625"
         y="325.45596"
         x="223.82812"
         height="5.078125"
         width="71.09375"
         id="rect4210-1-2"
         style="fill:#000000;fill-opacity:1;stroke:none;stroke-width:81.80000305;stroke-miterlimit:4;stroke-dasharray:none;stroke-opacity:1" />
    </g>
    <flowRoot
       xml:space="preserve"
       id="flowRoot4276"
       style="font-style:normal;font-weight:normal;font-size:40px;line-height:125%;font-family:sans-serif;letter-spacing:0px;word-spacing:0px;fill:#000000;fill-opacity:1;stroke:none;stroke-width:1px;stroke-linecap:butt;stroke-linejoin:miter;stroke-opacity:1"
       transform="matrix(0.32592549,0,0,0.32592549,-4.1343657,600.81143)"><flowRegion
         id="flowRegion4278"><rect
           id="rect4280"
           width="578.66687"
           height="375.0976"
           x="262.85715"
           y="59.094482" /></flowRegion><flowPara
         id="flowPara4282"
         style="font-style:normal;font-variant:normal;font-weight:normal;font-stretch:normal;font-size:23.61030388px;font-family:monospace;-inkscape-font-specification:monospace"><flowSpan
   style="font-style:normal;font-variant:normal;font-weight:bold;font-stretch:normal;font-size:23.61030388px;font-family:monospace;-inkscape-font-specification:'monospace Bold'"
   id="flowSpan4382">GET</flowSpan> / HTTP/1.1</flowPara><flowPara
         id="flowPara4284"
         style="font-style:normal;font-variant:normal;font-weight:normal;font-stretch:normal;font-size:23.61030388px;font-family:monospace;-inkscape-font-specification:monospace"><flowSpan
   style="font-style:normal;font-variant:normal;font-weight:bold;font-stretch:normal;font-size:23.61030388px;font-family:monospace;-inkscape-font-specification:'monospace Bold'"
   id="flowSpan4380">Host:</flowSpan> framasoft.org</flowPara><flowPara
         id="flowPara4286"
         style="font-style:normal;font-variant:normal;font-weight:normal;font-stretch:normal;font-size:23.61030388px;font-family:monospace;-inkscape-font-specification:monospace"><flowSpan
   style="font-style:normal;font-variant:normal;font-weight:bold;font-stretch:normal;font-size:23.61030388px;font-family:monospace;-inkscape-font-specification:'monospace Bold'"
   id="flowSpan4378">Connection:</flowSpan> close</flowPara><flowPara
         id="flowPara4288"
         style="font-style:normal;font-variant:normal;font-weight:normal;font-stretch:normal;font-size:23.61030388px;font-family:monospace;-inkscape-font-specification:monospace"><flowSpan
   style="font-style:normal;font-variant:normal;font-weight:bold;font-stretch:normal;font-size:23.61030388px;font-family:monospace;-inkscape-font-specification:'monospace Bold'"
   id="flowSpan4376">User-Agent:</flowSpan> Mozilla/5.0 (X11; Ubuntu; Linux x86_64; rv:51.0) Gecko/20100101 Firefox/51.0</flowPara><flowPara
         style="font-style:normal;font-variant:normal;font-weight:normal;font-stretch:normal;font-size:23.61030388px;font-family:monospace;-inkscape-font-specification:monospace"
         id="flowPara4360"><flowSpan
   style="font-style:normal;font-variant:normal;font-weight:bold;font-stretch:normal;font-size:23.61030388px;font-family:monospace;-inkscape-font-specification:'monospace Bold'"
   id="flowSpan4374">Accept-Encoding:</flowSpan> gzip</flowPara><flowPara
         style="font-style:normal;font-variant:normal;font-weight:normal;font-stretch:normal;font-size:23.61030388px;font-family:monospace;-inkscape-font-specification:monospace"
         id="flowPara4362"><flowSpan
   style="font-style:normal;font-variant:normal;font-weight:bold;font-stretch:normal;font-size:23.61030388px;font-family:monospace;-inkscape-font-specification:'monospace Bold'"
   id="flowSpan4372">Accept-Charset:</flowSpan> ISO-8859-1,UTF-8;q=0.7,*;q=0.7</flowPara><flowPara
         style="font-style:normal;font-variant:normal;font-weight:normal;font-stretch:normal;font-size:23.61030388px;font-family:monospace;-inkscape-font-specification:monospace"
         id="flowPara4364"><flowSpan
   style="font-style:normal;font-variant:normal;font-weight:bold;font-stretch:normal;font-size:23.61030388px;font-family:monospace;-inkscape-font-specification:'monospace Bold'"
   id="flowSpan4370">Cache-Control:</flowSpan> no-cache</flowPara><flowPara
         style="font-style:normal;font-variant:normal;font-weight:normal;font-stretch:normal;font-size:23.61030388px;font-family:monospace;-inkscape-font-specification:monospace"
         id="flowPara4366"><flowSpan
   style="font-style:normal;font-variant:normal;font-weight:bold;font-stretch:normal;font-size:23.61030388px;font-family:monospace;-inkscape-font-specification:'monospace Bold'"
   id="flowSpan4368">Accept-Language:</flowSpan> de,en;q=0.7,en-us;q=0.3</flowPara><flowPara
         id="flowPara4290"
         style="font-style:normal;font-variant:normal;font-weight:normal;font-stretch:normal;font-size:23.61030388px;font-family:monospace;-inkscape-font-specification:monospace" /><flowPara
         id="flowPara4292"
         style="font-style:normal;font-variant:normal;font-weight:normal;font-stretch:normal;font-size:23.61030388px;font-family:monospace;-inkscape-font-specification:monospace" /><flowPara
         id="flowPara4294"
         style="font-style:normal;font-variant:normal;font-weight:normal;font-stretch:normal;font-size:23.61030388px;font-family:monospace;-inkscape-font-specification:monospace" /><flowPara
         id="flowPara4296"
         style="font-style:normal;font-variant:normal;font-weight:normal;font-stretch:normal;font-size:23.61030388px;font-family:monospace;-inkscape-font-specification:monospace" /></flowRoot>    <flowRoot
       xml:space="preserve"
       id="flowRoot4298"
       style="font-style:normal;font-weight:normal;font-size:40px;line-height:125%;font-family:sans-serif;letter-spacing:0px;word-spacing:0px;fill:#000000;fill-opacity:1;stroke:none;stroke-width:1px;stroke-linecap:butt;stroke-linejoin:miter;stroke-opacity:1"
       transform="matrix(0.42485812,0,0,0.42485812,-56.498953,603.11833)"><flowRegion
         id="flowRegion4300"><rect
           id="rect4302"
           width="471.41925"
           height="584.99536"
           x="293.57144"
           y="501.23734" /></flowRegion><flowPara
         id="flowPara4304"
         style="font-style:normal;font-variant:normal;font-weight:normal;font-stretch:normal;font-size:18.11239815px;font-family:monospace;-inkscape-font-specification:monospace"><flowSpan
   style="font-style:normal;font-variant:normal;font-weight:bold;font-stretch:normal;font-size:18.11239815px;font-family:monospace;-inkscape-font-specification:'monospace Bold'"
   id="flowSpan4384">Status:</flowSpan> HTTP/1.1 200 OK</flowPara><flowPara
         id="flowPara4306"
         style="font-style:normal;font-variant:normal;font-weight:normal;font-stretch:normal;font-size:18.11239815px;font-family:monospace;-inkscape-font-specification:monospace"><flowSpan
   style="font-style:normal;font-variant:normal;font-weight:bold;font-stretch:normal;font-size:18.11239815px;font-family:monospace;-inkscape-font-specification:'monospace Bold'"
   id="flowSpan4386">Server:</flowSpan>	nginx/1.2.1	</flowPara><flowPara
         id="flowPara4308"
         style="font-style:normal;font-variant:normal;font-weight:normal;font-stretch:normal;font-size:18.11239815px;font-family:monospace;-inkscape-font-specification:monospace"><flowSpan
   style="font-style:normal;font-variant:normal;font-weight:bold;font-stretch:normal;font-size:18.11239815px;font-family:monospace;-inkscape-font-specification:'monospace Bold'"
   id="flowSpan4388">Date:</flowSpan>	Tue, 31 Jan 2017 17:02:17 GMT	</flowPara><flowPara
         id="flowPara4310"
         style="font-style:normal;font-variant:normal;font-weight:normal;font-stretch:normal;font-size:18.11239815px;font-family:monospace;-inkscape-font-specification:monospace"><flowSpan
   style="font-style:normal;font-variant:normal;font-weight:bold;font-stretch:normal;font-size:18.11239815px;font-family:monospace;-inkscape-font-specification:'monospace Bold'"
   id="flowSpan4390">Content-Type:</flowSpan>	text/html	</flowPara><flowPara
         id="flowPara4312"
         style="font-style:normal;font-variant:normal;font-weight:normal;font-stretch:normal;font-size:18.11239815px;font-family:monospace;-inkscape-font-specification:monospace"><flowSpan
   style="font-style:normal;font-variant:normal;font-weight:bold;font-stretch:normal;font-size:18.11239815px;font-family:monospace;-inkscape-font-specification:'monospace Bold'"
   id="flowSpan4392">Transfer-Encoding:</flowSpan>	chunked	</flowPara><flowPara
         id="flowPara4314"
         style="font-style:normal;font-variant:normal;font-weight:normal;font-stretch:normal;font-size:18.11239815px;font-family:monospace;-inkscape-font-specification:monospace"><flowSpan
   style="font-style:normal;font-variant:normal;font-weight:bold;font-stretch:normal;font-size:18.11239815px;font-family:monospace;-inkscape-font-specification:'monospace Bold'"
   id="flowSpan4394">Connection:</flowSpan>	close	</flowPara><flowPara
         id="flowPara4316"
         style="font-style:normal;font-variant:normal;font-weight:normal;font-stretch:normal;font-size:18.11239815px;font-family:monospace;-inkscape-font-specification:monospace"><flowSpan
   style="font-style:normal;font-variant:normal;font-weight:bold;font-stretch:normal;font-size:18.11239815px;font-family:monospace;-inkscape-font-specification:'monospace Bold'"
   id="flowSpan4396">X-Powered-By:</flowSpan>	PHP/5.4.45-0+deb7u6</flowPara><flowPara
         style="font-style:normal;font-variant:normal;font-weight:normal;font-stretch:normal;font-size:18.11239815px;font-family:monospace;-inkscape-font-specification:monospace"
         id="flowPara4352"><flowSpan
   style="font-style:normal;font-variant:normal;font-weight:bold;font-stretch:normal;font-size:18.11239815px;font-family:monospace;-inkscape-font-specification:'monospace Bold'"
   id="flowSpan4398">Set-Cookie:</flowSpan>	PHPSESSID=98308ek7o840v0lk5254efsir7; expires=Wed, 31-Jan-2018 17:02:17 GMT; path=/	Expires:	Thu, 19 Nov 1981 08:52:00 GMT</flowPara><flowPara
         style="font-style:normal;font-variant:normal;font-weight:normal;font-stretch:normal;font-size:18.11239815px;font-family:monospace;-inkscape-font-specification:monospace"
         id="flowPara4354"><flowSpan
   style="font-style:normal;font-variant:normal;font-weight:bold;font-stretch:normal;font-size:18.11239815px;font-family:monospace;-inkscape-font-specification:'monospace Bold'"
   id="flowSpan4400">Cache-Control:</flowSpan>	no-store, no-cache, must-revalidate, post-check=0, pre-check=0	</flowPara><flowPara
         style="font-style:normal;font-variant:normal;font-weight:normal;font-stretch:normal;font-size:18.11239815px;font-family:monospace;-inkscape-font-specification:monospace"
         id="flowPara4356"><flowSpan
   style="font-style:normal;font-variant:normal;font-weight:bold;font-stretch:normal;font-size:18.11239815px;font-family:monospace;-inkscape-font-specification:'monospace Bold'"
   id="flowSpan4402">Pragma:</flowSpan>	no-cache</flowPara><flowPara
         style="font-style:normal;font-variant:normal;font-weight:normal;font-stretch:normal;font-size:18.11239815px;font-family:monospace;-inkscape-font-specification:monospace"
         id="flowPara4358"><flowSpan
   style="font-style:normal;font-variant:normal;font-weight:bold;font-stretch:normal;font-size:18.11239815px;font-family:monospace;-inkscape-font-specification:'monospace Bold'"
   id="flowSpan4404">Strict-Transport-Security:</flowSpan>	max-age=15768000</flowPara><flowPara
         style="font-style:normal;font-variant:normal;font-weight:normal;font-stretch:normal;font-size:18.11239815px;font-family:monospace;-inkscape-font-specification:monospace"
         id="flowPara4350"><flowSpan
   style="font-style:normal;font-variant:normal;font-weight:bold;font-stretch:normal;font-size:18.11239815px;font-family:monospace;-inkscape-font-specification:'monospace Bold'"
   id="flowSpan4406">Content-Encoding:</flowSpan>	gzipContent (encoded: 15.18 KiB / decoded: 68.03 KiB)</flowPara><flowPara
         style="font-style:normal;font-variant:normal;font-weight:normal;font-stretch:normal;font-size:18.11239815px;font-family:monospace;-inkscape-font-specification:monospace"
         id="flowPara4408" /><flowPara
         style="font-style:normal;font-variant:normal;font-weight:normal;font-stretch:normal;font-size:18.11239815px;font-family:monospace;-inkscape-font-specification:monospace"
         id="flowPara4340">&lt;!DOCTYPE html&gt;</flowPara><flowPara
         style="font-style:normal;font-variant:normal;font-weight:bold;font-stretch:normal;font-size:18.11239815px;font-family:monospace;-inkscape-font-specification:'monospace Bold'"
         id="flowPara4342">(Suite et contenu de la page web)</flowPara><flowPara
         style="font-style:normal;font-variant:normal;font-weight:normal;font-stretch:normal;font-size:18.11239815px;font-family:monospace;-inkscape-font-specification:monospace"
         id="flowPara4344">  .</flowPara><flowPara
         style="font-style:normal;font-variant:normal;font-weight:normal;font-stretch:normal;font-size:18.11239815px;font-family:monospace;-inkscape-font-specification:monospace"
         id="flowPara4346">  .</flowPara><flowPara
         style="font-style:normal;font-variant:normal;font-weight:normal;font-stretch:normal;font-size:18.11239815px;font-family:monospace;-inkscape-font-specification:monospace"
         id="flowPara4348">  .</flowPara><flowPara
         id="flowPara4318"
         style="font-style:normal;font-variant:normal;font-weight:normal;font-stretch:normal;font-size:18.11239815px;font-family:monospace;-inkscape-font-specification:monospace" /><flowPara
         id="flowPara4320"
         style="font-style:normal;font-variant:normal;font-weight:normal;font-stretch:normal;font-size:18.11239815px;font-family:monospace;-inkscape-font-specification:monospace" /><flowPara
         id="flowPara4322"
         style="font-style:normal;font-variant:normal;font-weight:normal;font-stretch:normal;font-size:18.11239815px;font-family:monospace;-inkscape-font-specification:monospace" /><flowPara
         id="flowPara4324"
         style="font-style:normal;font-variant:normal;font-weight:normal;font-stretch:normal;font-size:18.11239815px;font-family:monospace;-inkscape-font-specification:monospace" /><flowPara
         id="flowPara4326"
         style="font-style:normal;font-variant:normal;font-weight:normal;font-stretch:normal;font-size:18.11239815px;font-family:monospace;-inkscape-font-specification:monospace" /><flowPara
         id="flowPara4328"
         style="font-style:normal;font-variant:normal;font-weight:normal;font-stretch:normal;font-size:18.11239815px;font-family:monospace;-inkscape-font-specification:monospace" /><flowPara
         id="flowPara4330"
         style="font-style:normal;font-variant:normal;font-weight:normal;font-stretch:normal;font-size:18.11239815px;font-family:monospace;-inkscape-font-specification:monospace" /><flowPara
         id="flowPara4332"
         style="font-style:normal;font-variant:normal;font-weight:normal;font-stretch:normal;font-size:18.11239815px;font-family:monospace;-inkscape-font-specification:monospace" /><flowPara
         id="flowPara4334"
         style="font-style:normal;font-variant:normal;font-weight:normal;font-stretch:normal;font-size:18.11239815px;font-family:monospace;-inkscape-font-specification:monospace" /><flowPara
         id="flowPara4336"
         style="font-style:normal;font-variant:normal;font-weight:normal;font-stretch:normal;font-size:18.11239815px;font-family:monospace;-inkscape-font-specification:monospace" /><flowPara
         id="flowPara4338"
         style="font-style:normal;font-variant:normal;font-weight:normal;font-stretch:normal;font-size:18.11239815px;font-family:monospace;-inkscape-font-specification:monospace" /></flowRoot>    <path
       sodipodi:type="spiral"
       style="fill:none;fill-rule:evenodd;stroke:#000000;stroke-width:5.12455654px;stroke-linecap:butt;stroke-linejoin:miter;stroke-opacity:1"
       id="path4437"
       sodipodi:cx="65.624733"
       sodipodi:cy="746.73608"
       sodipodi:expansion="1"
       sodipodi:revolution="0.65240514"
       sodipodi:radius="44.754478"
       sodipodi:argument="-18.153208"
       sodipodi:t0="0.69403231"
       d="M 37.012228,734.64834 C 38.072986,717.48122 53.045535,704.70145 69.341405,702.1362" />
    <path
       sodipodi:type="spiral"
       style="fill:none;fill-rule:evenodd;stroke:#000000;stroke-width:5.12455654px;stroke-linecap:butt;stroke-linejoin:miter;stroke-opacity:1"
       id="path4437-7"
       sodipodi:cx="-281.75323"
       sodipodi:cy="746.73608"
       sodipodi:expansion="1"
       sodipodi:revolution="0.65240514"
       sodipodi:radius="44.754478"
       sodipodi:argument="-18.153208"
       sodipodi:t0="0.69403231"
       d="m -310.36574,734.64834 c 1.06076,-17.16712 16.03331,-29.94689 32.32918,-32.51214"
       transform="scale(-1,1)" />
    <path
       sodipodi:type="spiral"
       style="fill:none;fill-rule:evenodd;stroke:#000000;stroke-width:5.12455654px;stroke-linecap:butt;stroke-linejoin:miter;stroke-opacity:1"
       id="path4437-7-0"
       sodipodi:cx="-282.10794"
       sodipodi:cy="-801.17102"
       sodipodi:expansion="1"
       sodipodi:revolution="0.65240514"
       sodipodi:radius="44.754478"
       sodipodi:argument="-18.153208"
       sodipodi:t0="0.69403231"
       d="m -310.72045,-813.25877 c 1.06076,-17.16711 16.03331,-29.94688 32.32918,-32.51213"
       transform="scale(-1,-1)" />
    <path
       sodipodi:type="spiral"
       style="fill:none;fill-rule:evenodd;stroke:#000000;stroke-width:5.12455654px;stroke-linecap:butt;stroke-linejoin:miter;stroke-opacity:1"
       id="path4437-4"
       sodipodi:cx="60.841148"
       sodipodi:cy="-801.17102"
       sodipodi:expansion="1"
       sodipodi:revolution="0.65240514"
       sodipodi:radius="44.754478"
       sodipodi:argument="-18.153208"
       sodipodi:t0="0.69403231"
       d="m 32.228644,-813.25877 c 1.060758,-17.16711 16.033307,-29.94688 32.329177,-32.51213"
       transform="scale(1,-1)" />
    <path
       style="opacity:1;fill:#000000;fill-opacity:1;stroke:none;stroke-width:1.5;stroke-linejoin:round;stroke-miterlimit:4;stroke-dasharray:none;stroke-dashoffset:0;stroke-opacity:1"
       d="m 281.84495,853.60842 c 0.0842,-3.08353 0.10668,-19.87774 0.0265,-19.87774 -0.0276,0 -4.38822,2.50447 -9.69047,5.5655 -5.30222,3.06102 -9.73031,5.61567 -9.84018,5.67701 -0.18199,0.10159 4.76432,3.01618 18.88445,11.12761 l 0.54303,0.31195 0.0766,-2.80433 z"
       id="path4488"
       inkscape:connector-curvature="0" />
    <path
       style="opacity:1;fill:#000000;fill-opacity:1;stroke:none;stroke-width:1.5;stroke-linejoin:round;stroke-miterlimit:4;stroke-dasharray:none;stroke-dashoffset:0;stroke-opacity:1"
       d="m 40.359203,819.62506 c -3.083518,0.0842 -19.877716,0.10666 -19.877716,0.0265 0,-0.0276 2.504458,-4.38823 5.565486,-9.69047 3.061026,-5.30223 5.615677,-9.73032 5.677014,-9.84019 0.101578,-0.18198 3.016173,4.76431 11.127607,18.88445 l 0.311952,0.54304 -2.804343,0.0766 z"
       id="path4488-0"
       inkscape:connector-curvature="0" />
    <path
       style="opacity:1;fill:#000000;fill-opacity:1;stroke:none;stroke-width:1.5;stroke-linejoin:round;stroke-miterlimit:4;stroke-dasharray:none;stroke-dashoffset:0;stroke-opacity:1"
       d="m 62.672548,710.59758 c -0.08422,-3.0835 -0.106669,-19.87772 -0.02659,-19.87772 0.02751,0 4.388221,2.50447 9.690459,5.56549 5.302241,3.06103 9.73033,5.61568 9.840202,5.67702 0.181978,0.10159 -4.764318,3.01618 -18.884455,11.12762 l -0.543041,0.31195 -0.0766,-2.80436 z"
       id="path4488-1"
       inkscape:connector-curvature="0" />
    <path
       style="opacity:1;fill:#000000;fill-opacity:1;stroke:none;stroke-width:1.5;stroke-linejoin:round;stroke-miterlimit:4;stroke-dasharray:none;stroke-dashoffset:0;stroke-opacity:1"
       d="m 301.88871,725.92649 c 3.08351,-0.0842 19.87773,-0.10667 19.87773,-0.0266 0,0.0276 -2.50447,4.38822 -5.56549,9.69046 -3.06103,5.30224 -5.61568,9.73033 -5.67702,9.8402 -0.10159,0.18196 -3.01618,-4.76432 -11.12761,-18.88446 l -0.31196,-0.54303 2.80435,-0.0766 z"
       id="path4488-6"
       inkscape:connector-curvature="0" />
    <rect
       style="opacity:1;fill:#000000;fill-opacity:1;stroke:none;stroke-width:1.5;stroke-linejoin:round;stroke-miterlimit:4;stroke-dasharray:none;stroke-dashoffset:0;stroke-opacity:1"
       id="rect4559"
       width="65.936089"
       height="17.863167"
       x="55.838654"
       y="781.52374" />
    <flowRoot
       xml:space="preserve"
       id="flowRoot4551"
       style="font-style:normal;font-weight:normal;font-size:40px;line-height:125%;font-family:sans-serif;letter-spacing:0px;word-spacing:0px;fill:#ffffff;fill-opacity:1;stroke:none;stroke-width:1px;stroke-linecap:butt;stroke-linejoin:miter;stroke-opacity:1"
       transform="matrix(0.25658478,0,0,0.25658478,1.7753737,716.23237)"><flowRegion
         id="flowRegion4553"><rect
           id="rect4555"
           width="237.14285"
           height="95.714287"
           x="225.71428"
           y="262.66592"
           style="fill:#ffffff" /></flowRegion><flowPara
         id="flowPara4557">Navigateur</flowPara></flowRoot>    <rect
       style="opacity:1;fill:#000000;fill-opacity:1;stroke:none;stroke-width:1.5;stroke-linejoin:round;stroke-miterlimit:4;stroke-dasharray:none;stroke-dashoffset:0;stroke-opacity:1"
       id="rect4559-6"
       width="65.936096"
       height="17.863167"
       x="222.89204"
       y="740.8642" />
    <flowRoot
       xml:space="preserve"
       id="flowRoot4551-2"
       style="font-style:normal;font-weight:normal;font-size:27.90701294px;line-height:125%;font-family:sans-serif;letter-spacing:0px;word-spacing:0px;fill:#ffffff;fill-opacity:1;stroke:none;stroke-width:1px;stroke-linecap:butt;stroke-linejoin:miter;stroke-opacity:1"
       transform="matrix(0.36777107,0,0,0.36777107,237.3402,627.22954)"><flowRegion
         id="flowRegion4553-1"><rect
           id="rect4555-9"
           width="165.44872"
           height="66.777496"
           x="10.472729"
           y="313.99066"
           style="fill:#ffffff" /></flowRegion><flowPara
         id="flowPara4557-6">Serveur</flowPara></flowRoot>    <rect
       style="opacity:1;fill:#000000;fill-opacity:1;stroke:none;stroke-width:1.5;stroke-linejoin:round;stroke-miterlimit:4;stroke-dasharray:none;stroke-dashoffset:0;stroke-opacity:1"
       id="rect4559-4-0"
       width="78.083878"
       height="18.120478"
       x="196.01715"
       y="1031.5488" />
    <flowRoot
       xml:space="preserve"
       id="flowRoot4551-8-2"
       style="font-style:normal;font-weight:normal;font-size:14.36390305px;line-height:125%;font-family:sans-serif;letter-spacing:0px;word-spacing:0px;fill:#ffffff;fill-opacity:1;stroke:none;stroke-width:1px;stroke-linecap:butt;stroke-linejoin:miter;stroke-opacity:1"
       transform="matrix(0.51314421,0,0,0.69342637,195.97477,1031.6975)"><flowRegion
         id="flowRegion4553-0-2"><rect
           id="rect4555-8-9"
           width="191.77509"
           height="19.297237"
           x="5.3903804"
           y="2.9456456"
           style="fill:#ffffff" /></flowRegion><flowPara
         id="flowPara4557-1-7">Réponse du serveur</flowPara></flowRoot>    <rect
       style="opacity:1;fill:#000000;fill-opacity:1;stroke:none;stroke-width:1.5;stroke-linejoin:round;stroke-miterlimit:4;stroke-dasharray:none;stroke-dashoffset:0;stroke-opacity:1"
       id="rect4559-4-0-3"
       width="87.651047"
       height="18.120478"
       x="187.25569"
       y="614.9552" />
    <flowRoot
       xml:space="preserve"
       id="flowRoot4551-8-2-6"
       style="font-style:normal;font-weight:normal;font-size:14.36390305px;line-height:125%;font-family:sans-serif;letter-spacing:0px;word-spacing:0px;fill:#ffffff;fill-opacity:1;stroke:none;stroke-width:1px;stroke-linecap:butt;stroke-linejoin:miter;stroke-opacity:1"
       transform="matrix(0.51314421,0,0,0.69342637,187.21333,615.10391)"><flowRegion
         id="flowRegion4553-0-2-7"><rect
           id="rect4555-8-9-5"
           width="191.77509"
           height="19.297237"
           x="5.3903804"
           y="2.9456456"
           style="fill:#ffffff" /></flowRegion><flowPara
         id="flowPara4557-1-7-3">Contenu de la requête</flowPara></flowRoot>  </g>
</svg>
