<?xml version="1.0" encoding="UTF-8" standalone="no"?>
<!-- Created with Inkscape (http://www.inkscape.org/) -->

<svg
   xmlns:dc="http://purl.org/dc/elements/1.1/"
   xmlns:cc="http://creativecommons.org/ns#"
   xmlns:rdf="http://www.w3.org/1999/02/22-rdf-syntax-ns#"
   xmlns:svg="http://www.w3.org/2000/svg"
   xmlns="http://www.w3.org/2000/svg"
   xmlns:sodipodi="http://sodipodi.sourceforge.net/DTD/sodipodi-0.dtd"
   xmlns:inkscape="http://www.inkscape.org/namespaces/inkscape"
   width="10cm"
   height="9.5cm"
   viewBox="0 0 354.33071 336.61416"
   id="svg2"
   version="1.1"
   inkscape:version="0.91 r13725"
   sodipodi:docname="grammalecte-options.svg"
   inkscape:export-filename="/media/h4ck3r/GrosDisque/Fichiersdetravail/Projets_Libres/LIVRESENCOURS/manueldumo/images/grammalecte-optionsNEW.png"
   inkscape:export-xdpi="150"
   inkscape:export-ydpi="150">
  <defs
     id="defs4" />
  <sodipodi:namedview
     id="base"
     pagecolor="#ffffff"
     bordercolor="#666666"
     borderopacity="1.0"
     inkscape:pageopacity="0.0"
     inkscape:pageshadow="2"
     inkscape:zoom="1.979899"
     inkscape:cx="119.25715"
     inkscape:cy="176.91156"
     inkscape:document-units="px"
     inkscape:current-layer="layer1"
     showgrid="false"
     units="cm"
     inkscape:window-width="1920"
     inkscape:window-height="1026"
     inkscape:window-x="0"
     inkscape:window-y="0"
     inkscape:window-maximized="1"
     borderlayer="true" />
  <metadata
     id="metadata7">
    <rdf:RDF>
      <cc:Work
         rdf:about="">
        <dc:format>image/svg+xml</dc:format>
        <dc:type
           rdf:resource="http://purl.org/dc/dcmitype/StillImage" />
        <dc:title></dc:title>
      </cc:Work>
    </rdf:RDF>
  </metadata>
  <g
     inkscape:label="Calque 1"
     inkscape:groupmode="layer"
     id="layer1"
     transform="translate(0,-715.74812)">
    <rect
       style="opacity:1;fill:#ffffff;fill-opacity:1;stroke:none;stroke-width:1.5;stroke-linejoin:round;stroke-miterlimit:4;stroke-dasharray:none;stroke-dashoffset:0;stroke-opacity:1"
       id="rect4262"
       width="374.28571"
       height="412.14285"
       x="-11.428572"
       y="650.21936" />
    <rect
       style="opacity:1;fill:#ffffff;fill-opacity:1;stroke:#000000;stroke-width:1.45067239;stroke-linejoin:round;stroke-miterlimit:4;stroke-dasharray:none;stroke-dashoffset:0;stroke-opacity:1"
       id="rect4136"
       width="348.40646"
       height="327.19327"
       x="3.0785358"
       y="721.23511"
       ry="17.220695" />
    <g
       id="g4189"
       transform="matrix(0.70196149,-0.71420428,0.71831991,0.69793959,-326.81514,529.52335)">
      <path
         id="rect4148-3"
         d="m 314.56365,607.01697 c -0.72473,-0.004 -1.30585,0.5763 -1.30205,1.3012 l 0.0176,3.36556 -3.32659,-0.0174 c -0.72473,-0.004 -1.3047,0.57631 -1.3009,1.30121 0.004,0.7249 0.58987,1.31111 1.3146,1.31491 l 3.32659,0.0174 0.0184,3.51475 c 0.004,0.7249 0.59102,1.31112 1.31575,1.31492 0.72472,0.004 1.30469,-0.57631 1.30089,-1.30121 l -0.0184,-3.51475 3.5509,0.0186 c 0.72473,0.004 1.30469,-0.57631 1.30089,-1.30121 -0.004,-0.7249 -0.58986,-1.31111 -1.31459,-1.31491 l -3.5509,-0.0186 -0.0176,-3.36556 c -0.004,-0.7249 -0.58988,-1.31111 -1.31459,-1.31491 z"
         style="opacity:1;fill:#000000;fill-opacity:1;stroke:none;stroke-width:3.54330707;stroke-linejoin:round;stroke-miterlimit:4;stroke-dasharray:none;stroke-dashoffset:0;stroke-opacity:1"
         inkscape:connector-curvature="0" />
      <rect
         style="opacity:1;fill:#000000;fill-opacity:1;stroke:none;stroke-width:3.54330707;stroke-linejoin:round;stroke-miterlimit:4;stroke-dasharray:none;stroke-dashoffset:0;stroke-opacity:1"
         id="rect4192"
         width="10.522011"
         height="2.3138478"
         x="640.25916"
         y="205.73318"
         transform="matrix(0.69891616,0.71520361,-0.71520361,0.69891616,0,0)"
         ry="1.1569239" />
      <flowRoot
         xml:space="preserve"
         id="flowRoot4194"
         style="font-style:normal;font-weight:normal;font-size:40px;line-height:125%;font-family:sans-serif;letter-spacing:0px;word-spacing:0px;fill:#000000;fill-opacity:1;stroke:none;stroke-width:1px;stroke-linecap:butt;stroke-linejoin:miter;stroke-opacity:1"
         transform="matrix(0.69891616,0.71520361,-0.71520361,0.69891616,118.99393,338.67144)"><flowRegion
           id="flowRegion4196"><rect
             id="rect4198"
             width="145.46196"
             height="150.00766"
             x="43.941635"
             y="98.140587" /></flowRegion><flowPara
           id="flowPara4200" /></flowRoot>      <text
         xml:space="preserve"
         style="font-style:normal;font-weight:normal;font-size:40px;line-height:125%;font-family:sans-serif;letter-spacing:0px;word-spacing:0px;fill:#000000;fill-opacity:1;stroke:none;stroke-width:1px;stroke-linecap:butt;stroke-linejoin:miter;stroke-opacity:1"
         x="252.14975"
         y="141.14725"
         id="text4218"
         sodipodi:linespacing="125%"
         transform="matrix(0.69891616,0.71520361,-0.71520361,0.69891616,0,0)"><tspan
           sodipodi:role="line"
           id="tspan4220"
           x="252.14975"
           y="141.14725" /></text>
      <g
         id="g4798"
         transform="matrix(1.2155772,0.01294179,0.01294179,1.2161735,-25.803532,-83.123587)">
        <text
           transform="matrix(0.69891616,0.71520361,-0.71520361,0.69891616,0,0)"
           sodipodi:linespacing="125%"
           id="text4202"
           y="233.5762"
           x="345.08377"
           style="font-style:normal;font-weight:normal;font-size:40px;line-height:125%;font-family:sans-serif;letter-spacing:0px;word-spacing:0px;fill:#000000;fill-opacity:1;stroke:none;stroke-width:1px;stroke-linecap:butt;stroke-linejoin:miter;stroke-opacity:1"
           xml:space="preserve"><tspan
             style="font-style:normal;font-variant:normal;font-weight:normal;font-stretch:normal;font-size:6.875px;font-family:'Nimbus Sans L';-inkscape-font-specification:'Nimbus Sans L'"
             y="233.5762"
             x="345.08377"
             id="tspan4204"
             sodipodi:role="line">Signes typographiques</tspan><tspan
             style="font-style:normal;font-variant:normal;font-weight:normal;font-stretch:normal;font-size:6.875px;font-family:'Nimbus Sans L';-inkscape-font-specification:'Nimbus Sans L'"
             id="tspan4206"
             y="242.16995"
             x="345.08377"
             sodipodi:role="line">Espaces surnuméraires</tspan><tspan
             style="font-style:normal;font-variant:normal;font-weight:normal;font-stretch:normal;font-size:6.875px;font-family:'Nimbus Sans L';-inkscape-font-specification:'Nimbus Sans L'"
             id="tspan4208"
             y="250.7637"
             x="345.08377"
             sodipodi:role="line">Traits d'union</tspan><tspan
             style="font-style:normal;font-variant:normal;font-weight:normal;font-stretch:normal;font-size:6.875px;font-family:'Nimbus Sans L';-inkscape-font-specification:'Nimbus Sans L'"
             id="tspan4210"
             y="259.35745"
             x="345.08377"
             sodipodi:role="line">Nombres</tspan><tspan
             style="font-style:normal;font-variant:normal;font-weight:normal;font-stretch:normal;font-size:6.875px;font-family:'Nimbus Sans L';-inkscape-font-specification:'Nimbus Sans L'"
             id="tspan4212"
             y="267.9512"
             x="345.08377"
             sodipodi:role="line">Espaces insécables avant unités de mesures</tspan><tspan
             style="font-style:normal;font-variant:normal;font-weight:normal;font-stretch:normal;font-size:6.875px;font-family:'Nimbus Sans L';-inkscape-font-specification:'Nimbus Sans L'"
             id="tspan4214"
             y="276.54495"
             x="345.08377"
             sodipodi:role="line">Signaler ligatures typographiques</tspan><tspan
             style="font-style:normal;font-variant:normal;font-weight:normal;font-stretch:normal;font-size:6.875px;font-family:'Nimbus Sans L';-inkscape-font-specification:'Nimbus Sans L'"
             id="tspan4216"
             y="285.1387"
             x="345.08377"
             sodipodi:role="line">Chimie [!]</tspan></text>
        <rect
           ry="0.53678036"
           transform="matrix(0.69891616,0.71520361,-0.71520361,0.69891616,0,0)"
           y="228.63177"
           x="335.94385"
           height="5.8482289"
           width="5.8482289"
           id="rect4604"
           style="opacity:1;fill:none;fill-opacity:1;stroke:#000000;stroke-width:0.49730435;stroke-linejoin:round;stroke-miterlimit:4;stroke-dasharray:none;stroke-dashoffset:0;stroke-opacity:1" />
        <rect
           transform="matrix(0.69891616,0.71520361,-0.71520361,0.69891616,0,0)"
           ry="0.53678036"
           y="237.10245"
           x="335.94385"
           height="5.8482289"
           width="5.8482289"
           id="rect4604-2"
           style="opacity:1;fill:none;fill-opacity:1;stroke:#000000;stroke-width:0.49730435;stroke-linejoin:round;stroke-miterlimit:4;stroke-dasharray:none;stroke-dashoffset:0;stroke-opacity:1" />
        <rect
           transform="matrix(0.69891616,0.71520361,-0.71520361,0.69891616,0,0)"
           ry="0.53678036"
           y="245.57309"
           x="335.94385"
           height="5.8482289"
           width="5.8482289"
           id="rect4604-6"
           style="opacity:1;fill:none;fill-opacity:1;stroke:#000000;stroke-width:0.49730435;stroke-linejoin:round;stroke-miterlimit:4;stroke-dasharray:none;stroke-dashoffset:0;stroke-opacity:1" />
        <rect
           transform="matrix(0.69891616,0.71520361,-0.71520361,0.69891616,0,0)"
           ry="0.53678036"
           y="254.04373"
           x="335.94385"
           height="5.8482289"
           width="5.8482289"
           id="rect4604-8"
           style="opacity:1;fill:none;fill-opacity:1;stroke:#000000;stroke-width:0.49730435;stroke-linejoin:round;stroke-miterlimit:4;stroke-dasharray:none;stroke-dashoffset:0;stroke-opacity:1" />
        <rect
           transform="matrix(0.69891616,0.71520361,-0.71520361,0.69891616,0,0)"
           ry="0.53678036"
           y="262.5144"
           x="335.94385"
           height="5.8482289"
           width="5.8482289"
           id="rect4604-5"
           style="opacity:1;fill:none;fill-opacity:1;stroke:#000000;stroke-width:0.49730435;stroke-linejoin:round;stroke-miterlimit:4;stroke-dasharray:none;stroke-dashoffset:0;stroke-opacity:1" />
        <rect
           transform="matrix(0.69891616,0.71520361,-0.71520361,0.69891616,0,0)"
           ry="0.53678036"
           y="270.98508"
           x="335.94385"
           height="5.8482289"
           width="5.8482289"
           id="rect4604-28"
           style="opacity:1;fill:none;fill-opacity:1;stroke:#000000;stroke-width:0.49730435;stroke-linejoin:round;stroke-miterlimit:4;stroke-dasharray:none;stroke-dashoffset:0;stroke-opacity:1" />
        <rect
           transform="matrix(0.69891616,0.71520361,-0.71520361,0.69891616,0,0)"
           ry="0.53678036"
           y="279.45572"
           x="335.94385"
           height="5.8482289"
           width="5.8482289"
           id="rect4604-3"
           style="opacity:1;fill:none;fill-opacity:1;stroke:#000000;stroke-width:0.49730435;stroke-linejoin:round;stroke-miterlimit:4;stroke-dasharray:none;stroke-dashoffset:0;stroke-opacity:1" />
      </g>
      <g
         id="g4815"
         transform="translate(-7.6828184,5.681265)">
        <text
           transform="matrix(0.70639744,0.72285924,-0.70762906,0.69151411,0,0)"
           sodipodi:linespacing="125%"
           id="text4202-1"
           y="233.49629"
           x="526.7287"
           style="font-style:normal;font-weight:normal;font-size:48.63225937px;line-height:125%;font-family:sans-serif;letter-spacing:0px;word-spacing:0px;fill:#000000;fill-opacity:1;stroke:none;stroke-width:1px;stroke-linecap:butt;stroke-linejoin:miter;stroke-opacity:1"
           xml:space="preserve"><tspan
             style="font-style:normal;font-variant:normal;font-weight:normal;font-stretch:normal;font-size:8.35866928px;font-family:'Nimbus Sans L';-inkscape-font-specification:'Nimbus Sans L'"
             id="tspan4216-5"
             y="233.49629"
             x="526.7287"
             sodipodi:role="line">Apostrophes typographiques</tspan><tspan
             id="tspan4285"
             style="font-style:normal;font-variant:normal;font-weight:normal;font-stretch:normal;font-size:8.35866928px;font-family:'Nimbus Sans L';-inkscape-font-specification:'Nimbus Sans L'"
             y="243.94463"
             x="526.7287"
             sodipodi:role="line">Espaces insécables</tspan><tspan
             id="tspan4287"
             style="font-style:normal;font-variant:normal;font-weight:normal;font-stretch:normal;font-size:8.35866928px;font-family:'Nimbus Sans L';-inkscape-font-specification:'Nimbus Sans L'"
             y="254.39296"
             x="526.7287"
             sodipodi:role="line">Majuscules</tspan><tspan
             id="tspan4289"
             style="font-style:normal;font-variant:normal;font-weight:normal;font-stretch:normal;font-size:8.35866928px;font-family:'Nimbus Sans L';-inkscape-font-specification:'Nimbus Sans L'"
             y="264.84131"
             x="526.7287"
             sodipodi:role="line">Virgules</tspan><tspan
             id="tspan4291"
             style="font-style:normal;font-variant:normal;font-weight:normal;font-stretch:normal;font-size:8.35866928px;font-family:'Nimbus Sans L';-inkscape-font-specification:'Nimbus Sans L'"
             y="275.28964"
             x="526.7287"
             sodipodi:role="line">Normes françaises</tspan><tspan
             id="tspan4293"
             style="font-style:normal;font-variant:normal;font-weight:normal;font-stretch:normal;font-size:8.35866928px;font-family:'Nimbus Sans L';-inkscape-font-specification:'Nimbus Sans L'"
             y="285.73798"
             x="526.7287"
             sodipodi:role="line">Apostrophes manquantes après</tspan><tspan
             style="font-style:normal;font-variant:normal;font-weight:normal;font-stretch:normal;font-size:8.35866928px;font-family:'Nimbus Sans L';-inkscape-font-specification:'Nimbus Sans L'"
             y="296.18631"
             x="526.7287"
             sodipodi:role="line"
             id="tspan4263">                                  lettres isolées [!]</tspan></text>
        <rect
           transform="matrix(0.69891616,0.71520361,-0.71520361,0.69891616,0,0)"
           ry="0.64570928"
           y="224.84047"
           x="520.73364"
           height="7.0350108"
           width="7.1864243"
           id="rect4604-67"
           style="opacity:1;fill:none;fill-opacity:1;stroke:#000000;stroke-width:0.60462588;stroke-linejoin:round;stroke-miterlimit:4;stroke-dasharray:none;stroke-dashoffset:0;stroke-opacity:1" />
        <rect
           transform="matrix(0.69891616,0.71520361,-0.71520361,0.69891616,0,0)"
           ry="0.64570928"
           y="235.03011"
           x="520.73364"
           height="7.0350108"
           width="7.1864243"
           id="rect4604-2-8"
           style="opacity:1;fill:none;fill-opacity:1;stroke:#000000;stroke-width:0.60462588;stroke-linejoin:round;stroke-miterlimit:4;stroke-dasharray:none;stroke-dashoffset:0;stroke-opacity:1" />
        <rect
           transform="matrix(0.69891616,0.71520361,-0.71520361,0.69891616,0,0)"
           ry="0.64570928"
           y="245.21968"
           x="520.73364"
           height="7.0350108"
           width="7.1864243"
           id="rect4604-6-7"
           style="opacity:1;fill:none;fill-opacity:1;stroke:#000000;stroke-width:0.60462588;stroke-linejoin:round;stroke-miterlimit:4;stroke-dasharray:none;stroke-dashoffset:0;stroke-opacity:1" />
        <rect
           transform="matrix(0.69891616,0.71520361,-0.71520361,0.69891616,0,0)"
           ry="0.64570928"
           y="255.40927"
           x="520.73364"
           height="7.0350108"
           width="7.1864243"
           id="rect4604-8-2"
           style="opacity:1;fill:none;fill-opacity:1;stroke:#000000;stroke-width:0.60462588;stroke-linejoin:round;stroke-miterlimit:4;stroke-dasharray:none;stroke-dashoffset:0;stroke-opacity:1" />
        <rect
           transform="matrix(0.69891616,0.71520361,-0.71520361,0.69891616,0,0)"
           ry="0.64570928"
           y="265.59894"
           x="520.73364"
           height="7.0350108"
           width="7.1864243"
           id="rect4604-5-6"
           style="opacity:1;fill:none;fill-opacity:1;stroke:#000000;stroke-width:0.60462588;stroke-linejoin:round;stroke-miterlimit:4;stroke-dasharray:none;stroke-dashoffset:0;stroke-opacity:1" />
        <rect
           transform="matrix(0.69891616,0.71520361,-0.71520361,0.69891616,0,0)"
           ry="0.64570928"
           y="275.78857"
           x="520.73364"
           height="7.0350108"
           width="7.1864243"
           id="rect4604-28-6"
           style="opacity:1;fill:none;fill-opacity:1;stroke:#000000;stroke-width:0.60462588;stroke-linejoin:round;stroke-miterlimit:4;stroke-dasharray:none;stroke-dashoffset:0;stroke-opacity:1" />
      </g>
      <g
         id="g4835"
         transform="matrix(1.2155772,0.01294179,0.01294179,1.2161735,-15.565961,-95.429108)">
        <text
           transform="matrix(0.69891616,0.71520361,-0.71520361,0.69891616,0,0)"
           sodipodi:linespacing="125%"
           id="text4202-9"
           y="320.73022"
           x="345.52414"
           style="font-style:normal;font-weight:normal;font-size:40px;line-height:125%;font-family:sans-serif;letter-spacing:0px;word-spacing:0px;fill:#000000;fill-opacity:1;stroke:none;stroke-width:1px;stroke-linecap:butt;stroke-linejoin:miter;stroke-opacity:1"
           xml:space="preserve"><tspan
             style="font-style:normal;font-variant:normal;font-weight:normal;font-stretch:normal;font-size:6.875px;font-family:'Nimbus Sans L';-inkscape-font-specification:'Nimbus Sans L'"
             id="tspan4216-9"
             y="320.73022"
             x="345.52414"
             sodipodi:role="line">Confusions, homonymes et faux-amis</tspan><tspan
             id="tspan4358"
             style="font-style:normal;font-variant:normal;font-weight:normal;font-stretch:normal;font-size:6.875px;font-family:'Nimbus Sans L';-inkscape-font-specification:'Nimbus Sans L'"
             y="329.32397"
             x="345.52414"
             sodipodi:role="line">Accords de genre et de nombre</tspan></text>
        <rect
           transform="matrix(0.69891616,0.71520361,-0.71520361,0.69891616,0,0)"
           ry="0.53678036"
           y="315.39893"
           x="337.28314"
           height="5.8482289"
           width="5.8482289"
           id="rect4604-5-6-9"
           style="opacity:1;fill:none;fill-opacity:1;stroke:#000000;stroke-width:0.49730435;stroke-linejoin:round;stroke-miterlimit:4;stroke-dasharray:none;stroke-dashoffset:0;stroke-opacity:1" />
        <rect
           transform="matrix(0.69891616,0.71520361,-0.71520361,0.69891616,0,0)"
           ry="0.53678036"
           y="323.8696"
           x="337.28314"
           height="5.8482289"
           width="5.8482289"
           id="rect4604-28-6-7"
           style="opacity:1;fill:none;fill-opacity:1;stroke:#000000;stroke-width:0.49730435;stroke-linejoin:round;stroke-miterlimit:4;stroke-dasharray:none;stroke-dashoffset:0;stroke-opacity:1" />
      </g>
      <g
         id="g4830"
         transform="matrix(1.2155772,0.01294179,0.01294179,1.2161735,-32.73728,-119.15669)">
        <text
           transform="matrix(0.69891616,0.71520361,-0.71520361,0.69891616,0,0)"
           sodipodi:linespacing="125%"
           id="text4202-9-1"
           y="323.5061"
           x="518.95337"
           style="font-style:normal;font-weight:normal;font-size:40px;line-height:125%;font-family:sans-serif;letter-spacing:0px;word-spacing:0px;fill:#000000;fill-opacity:1;stroke:none;stroke-width:1px;stroke-linecap:butt;stroke-linejoin:miter;stroke-opacity:1"
           xml:space="preserve"><tspan
             id="tspan4358-8"
             style="font-style:normal;font-variant:normal;font-weight:normal;font-stretch:normal;font-size:6.875px;font-family:'Nimbus Sans L';-inkscape-font-specification:'Nimbus Sans L'"
             y="323.5061"
             x="518.95337"
             sodipodi:role="line">Pluriels (locutions)</tspan></text>
        <rect
           transform="matrix(0.69891616,0.71520361,-0.71520361,0.69891616,0,0)"
           ry="0.53678036"
           y="318.07751"
           x="510.67599"
           height="5.8482289"
           width="5.8482289"
           id="rect4604-5-6-0"
           style="opacity:1;fill:none;fill-opacity:1;stroke:#000000;stroke-width:0.49730435;stroke-linejoin:round;stroke-miterlimit:4;stroke-dasharray:none;stroke-dashoffset:0;stroke-opacity:1" />
      </g>
      <g
         id="g4849"
         transform="matrix(1.2155772,0.01294179,0.01294179,1.2161735,-27.840734,-123.32809)">
        <text
           transform="matrix(0.69891616,0.71520361,-0.71520361,0.69891616,0,0)"
           sodipodi:linespacing="125%"
           id="text4202-9-7-3"
           y="363.88129"
           x="519.31415"
           style="font-style:normal;font-weight:normal;font-size:40px;line-height:125%;font-family:sans-serif;letter-spacing:0px;word-spacing:0px;fill:#000000;fill-opacity:1;stroke:none;stroke-width:1px;stroke-linecap:butt;stroke-linejoin:miter;stroke-opacity:1"
           xml:space="preserve"><tspan
             id="tspan4406-3"
             style="font-style:normal;font-variant:normal;font-weight:normal;font-stretch:normal;font-size:6.875px;font-family:'Nimbus Sans L';-inkscape-font-specification:'Nimbus Sans L'"
             y="363.88129"
             x="519.31415"
             sodipodi:role="line">Conjugaisons</tspan><tspan
             id="tspan4431"
             style="font-style:normal;font-variant:normal;font-weight:normal;font-stretch:normal;font-size:6.875px;font-family:'Nimbus Sans L';-inkscape-font-specification:'Nimbus Sans L'"
             y="372.47504"
             x="519.31415"
             sodipodi:role="line">Interrogatif</tspan></text>
        <rect
           transform="matrix(0.69891616,0.71520361,-0.71520361,0.69891616,0,0)"
           ry="0.53678036"
           y="358.25607"
           x="510.31885"
           height="5.8482289"
           width="5.8482289"
           id="rect4604-5-6-7"
           style="opacity:1;fill:none;fill-opacity:1;stroke:#000000;stroke-width:0.49730435;stroke-linejoin:round;stroke-miterlimit:4;stroke-dasharray:none;stroke-dashoffset:0;stroke-opacity:1" />
        <rect
           transform="matrix(0.69891616,0.71520361,-0.71520361,0.69891616,0,0)"
           ry="0.53678036"
           y="366.72675"
           x="510.31885"
           height="5.8482289"
           width="5.8482289"
           id="rect4604-28-6-2"
           style="opacity:1;fill:none;fill-opacity:1;stroke:#000000;stroke-width:0.49730435;stroke-linejoin:round;stroke-miterlimit:4;stroke-dasharray:none;stroke-dashoffset:0;stroke-opacity:1" />
      </g>
      <g
         id="g4842"
         transform="matrix(1.2155772,0.01294179,0.01294179,1.2161735,-4.6812052,-101.46379)">
        <text
           transform="matrix(0.69891616,0.71520361,-0.71520361,0.69891616,0,0)"
           sodipodi:linespacing="125%"
           id="text4202-9-7"
           y="365.42746"
           x="343.18683"
           style="font-style:normal;font-weight:normal;font-size:40px;line-height:125%;font-family:sans-serif;letter-spacing:0px;word-spacing:0px;fill:#000000;fill-opacity:1;stroke:none;stroke-width:1px;stroke-linecap:butt;stroke-linejoin:miter;stroke-opacity:1"
           xml:space="preserve"><tspan
             id="tspan4358-9"
             style="font-style:normal;font-variant:normal;font-weight:normal;font-stretch:normal;font-size:6.875px;font-family:'Nimbus Sans L';-inkscape-font-specification:'Nimbus Sans L'"
             y="365.42746"
             x="343.18683"
             sodipodi:role="line">Infinitif</tspan><tspan
             id="tspan4406"
             style="font-style:normal;font-variant:normal;font-weight:normal;font-stretch:normal;font-size:6.875px;font-family:'Nimbus Sans L';-inkscape-font-specification:'Nimbus Sans L'"
             y="374.02121"
             x="343.18683"
             sodipodi:role="line">Impératif</tspan></text>
        <rect
           transform="matrix(0.69891616,0.71520361,-0.71520361,0.69891616,0,0)"
           ry="0.53678036"
           y="360.22037"
           x="334.60455"
           height="5.8482289"
           width="5.8482289"
           id="rect4604-5-6-3"
           style="opacity:1;fill:none;fill-opacity:1;stroke:#000000;stroke-width:0.49730435;stroke-linejoin:round;stroke-miterlimit:4;stroke-dasharray:none;stroke-dashoffset:0;stroke-opacity:1" />
        <rect
           transform="matrix(0.69891616,0.71520361,-0.71520361,0.69891616,0,0)"
           ry="0.53678036"
           y="368.69104"
           x="334.60455"
           height="5.8482289"
           width="5.8482289"
           id="rect4604-28-6-5"
           style="opacity:1;fill:none;fill-opacity:1;stroke:#000000;stroke-width:0.49730435;stroke-linejoin:round;stroke-miterlimit:4;stroke-dasharray:none;stroke-dashoffset:0;stroke-opacity:1" />
      </g>
      <g
         id="g4856"
         transform="matrix(1.2155772,0.01294179,0.01294179,1.2161735,1.3520428,-111.655)">
        <text
           transform="matrix(0.69891616,0.71520361,-0.71520361,0.69891616,0,0)"
           sodipodi:linespacing="125%"
           id="text4202-9-7-3-8"
           y="406.84372"
           x="346.43652"
           style="font-style:normal;font-weight:normal;font-size:40px;line-height:125%;font-family:sans-serif;letter-spacing:0px;word-spacing:0px;fill:#000000;fill-opacity:1;stroke:none;stroke-width:1px;stroke-linecap:butt;stroke-linejoin:miter;stroke-opacity:1"
           xml:space="preserve"><tspan
             id="tspan4431-9"
             style="font-style:normal;font-variant:normal;font-weight:normal;font-stretch:normal;font-size:6.875px;font-family:'Nimbus Sans L';-inkscape-font-specification:'Nimbus Sans L'"
             y="406.84372"
             x="346.43652"
             sodipodi:role="line">Populaire</tspan><tspan
             id="tspan4456"
             style="font-style:normal;font-variant:normal;font-weight:normal;font-stretch:normal;font-size:6.875px;font-family:'Nimbus Sans L';-inkscape-font-specification:'Nimbus Sans L'"
             y="415.43747"
             x="346.43652"
             sodipodi:role="line">Répétitions dans le paragraphe [!]</tspan><tspan
             id="tspan4458"
             style="font-style:normal;font-variant:normal;font-weight:normal;font-stretch:normal;font-size:6.875px;font-family:'Nimbus Sans L';-inkscape-font-specification:'Nimbus Sans L'"
             y="424.03122"
             x="346.43652"
             sodipodi:role="line">Adverbe de négation [!]</tspan></text>
        <rect
           transform="matrix(0.69891616,0.71520361,-0.71520361,0.69891616,0,0)"
           ry="0.53678036"
           y="401.69934"
           x="337.10455"
           height="5.8482289"
           width="5.8482289"
           id="rect4604-5-1"
           style="opacity:1;fill:none;fill-opacity:1;stroke:#000000;stroke-width:0.49730435;stroke-linejoin:round;stroke-miterlimit:4;stroke-dasharray:none;stroke-dashoffset:0;stroke-opacity:1" />
        <rect
           transform="matrix(0.69891616,0.71520361,-0.71520361,0.69891616,0,0)"
           ry="0.53678036"
           y="410.17001"
           x="337.10455"
           height="5.8482289"
           width="5.8482289"
           id="rect4604-28-7"
           style="opacity:1;fill:none;fill-opacity:1;stroke:#000000;stroke-width:0.49730435;stroke-linejoin:round;stroke-miterlimit:4;stroke-dasharray:none;stroke-dashoffset:0;stroke-opacity:1" />
        <rect
           transform="matrix(0.69891616,0.71520361,-0.71520361,0.69891616,0,0)"
           ry="0.53678036"
           y="418.64066"
           x="337.10455"
           height="5.8482289"
           width="5.8482289"
           id="rect4604-3-8"
           style="opacity:1;fill:none;fill-opacity:1;stroke:#000000;stroke-width:0.49730435;stroke-linejoin:round;stroke-miterlimit:4;stroke-dasharray:none;stroke-dashoffset:0;stroke-opacity:1" />
      </g>
      <g
         id="g4865"
         transform="matrix(1.2155772,0.01294179,0.01294179,1.2161735,-10.95981,-124.79085)">
        <text
           transform="matrix(0.69891616,0.71520361,-0.71520361,0.69891616,0,0)"
           sodipodi:linespacing="125%"
           id="text4202-9-7-3-8-3"
           y="406.5462"
           x="510.82016"
           style="font-style:normal;font-weight:normal;font-size:40px;line-height:125%;font-family:sans-serif;letter-spacing:0px;word-spacing:0px;fill:#000000;fill-opacity:1;stroke:none;stroke-width:1px;stroke-linecap:butt;stroke-linejoin:miter;stroke-opacity:1"
           xml:space="preserve"><tspan
             id="tspan4458-4"
             style="font-style:normal;font-variant:normal;font-weight:normal;font-stretch:normal;font-size:6.875px;font-family:'Nimbus Sans L';-inkscape-font-specification:'Nimbus Sans L'"
             y="406.5462"
             x="510.82016"
             sodipodi:role="line">Pléonasmes</tspan><tspan
             id="tspan4489"
             style="font-style:normal;font-variant:normal;font-weight:normal;font-stretch:normal;font-size:6.875px;font-family:'Nimbus Sans L';-inkscape-font-specification:'Nimbus Sans L'"
             y="415.13995"
             x="510.82016"
             sodipodi:role="line">Répétitions dans la phrase [!]</tspan></text>
        <rect
           transform="matrix(0.69891616,0.71520361,-0.71520361,0.69891616,0,0)"
           ry="0.53678036"
           y="401.11322"
           x="501.56885"
           height="5.8482289"
           width="5.8482289"
           id="rect4604-5-6-7-9"
           style="opacity:1;fill:none;fill-opacity:1;stroke:#000000;stroke-width:0.49730435;stroke-linejoin:round;stroke-miterlimit:4;stroke-dasharray:none;stroke-dashoffset:0;stroke-opacity:1" />
        <rect
           transform="matrix(0.69891616,0.71520361,-0.71520361,0.69891616,0,0)"
           ry="0.53678036"
           y="409.58389"
           x="501.56885"
           height="5.8482289"
           width="5.8482289"
           id="rect4604-28-6-2-4"
           style="opacity:1;fill:none;fill-opacity:1;stroke:#000000;stroke-width:0.49730435;stroke-linejoin:round;stroke-miterlimit:4;stroke-dasharray:none;stroke-dashoffset:0;stroke-opacity:1" />
      </g>
      <g
         id="g4877"
         transform="matrix(1.2155772,0.01294179,0.01294179,1.2161735,-0.94564314,-130.8952)">
        <text
           transform="matrix(0.69891616,0.71520361,-0.71520361,0.69891616,0,0)"
           sodipodi:linespacing="125%"
           id="text4202-9-7-3-8-8"
           y="456.54874"
           x="507.7897"
           style="font-style:normal;font-weight:normal;font-size:40px;line-height:125%;font-family:sans-serif;letter-spacing:0px;word-spacing:0px;fill:#000000;fill-opacity:1;stroke:none;stroke-width:1px;stroke-linecap:butt;stroke-linejoin:miter;stroke-opacity:1"
           xml:space="preserve"><tspan
             id="tspan4458-8"
             style="font-style:normal;font-variant:normal;font-weight:normal;font-stretch:normal;font-size:6.875px;font-family:'Nimbus Sans L';-inkscape-font-specification:'Nimbus Sans L'"
             y="456.54874"
             x="507.7897"
             sodipodi:role="line">Mots composés [!]</tspan></text>
        <rect
           transform="matrix(0.69891616,0.71520361,-0.71520361,0.69891616,0,0)"
           ry="0.53678036"
           y="451.24142"
           x="499.42596"
           height="5.8482289"
           width="5.8482289"
           id="rect4604-28-6-2-4-1"
           style="opacity:1;fill:none;fill-opacity:1;stroke:#000000;stroke-width:0.49730435;stroke-linejoin:round;stroke-miterlimit:4;stroke-dasharray:none;stroke-dashoffset:0;stroke-opacity:1" />
      </g>
      <g
         id="g4872"
         transform="matrix(1.2155772,0.01294179,0.01294179,1.2161735,7.4902886,-123.48286)">
        <text
           transform="matrix(0.69891616,0.71520361,-0.71520361,0.69891616,0,0)"
           sodipodi:linespacing="125%"
           id="text4202-9-7-3-8-0"
           y="458.064"
           x="349.70081"
           style="font-style:normal;font-weight:normal;font-size:40px;line-height:125%;font-family:sans-serif;letter-spacing:0px;word-spacing:0px;fill:#000000;fill-opacity:1;stroke:none;stroke-width:1px;stroke-linecap:butt;stroke-linejoin:miter;stroke-opacity:1"
           xml:space="preserve"><tspan
             id="tspan4458-6"
             style="font-style:normal;font-variant:normal;font-weight:normal;font-stretch:normal;font-size:6.875px;font-family:'Nimbus Sans L';-inkscape-font-specification:'Nimbus Sans L'"
             y="458.064"
             x="349.70081"
             sodipodi:role="line">Validité des dates</tspan></text>
        <rect
           transform="matrix(0.69891616,0.71520361,-0.71520361,0.69891616,0,0)"
           ry="0.53678036"
           y="452.84854"
           x="340.49741"
           height="5.8482289"
           width="5.8482289"
           id="rect4604-28-6-2-4-6"
           style="opacity:1;fill:none;fill-opacity:1;stroke:#000000;stroke-width:0.49730435;stroke-linejoin:round;stroke-miterlimit:4;stroke-dasharray:none;stroke-dashoffset:0;stroke-opacity:1" />
      </g>
      <g
         id="g4882"
         transform="matrix(1.2155772,0.01294179,0.01294179,1.2161735,20.929995,-140.91186)">
        <text
           transform="matrix(0.69891616,0.71520361,-0.71520361,0.69891616,0,0)"
           sodipodi:linespacing="125%"
           id="text4202-9-7-3-8-0-5"
           y="499.69073"
           x="352.31592"
           style="font-style:normal;font-weight:normal;font-size:40px;line-height:125%;font-family:sans-serif;letter-spacing:0px;word-spacing:0px;fill:#000000;fill-opacity:1;stroke:none;stroke-width:1px;stroke-linecap:butt;stroke-linejoin:miter;stroke-opacity:1"
           xml:space="preserve"><tspan
             id="tspan4458-6-0"
             style="font-style:normal;font-variant:normal;font-weight:normal;font-stretch:normal;font-size:6.875px;font-family:'Nimbus Sans L';-inkscape-font-specification:'Nimbus Sans L'"
             y="499.69073"
             x="352.31592"
             sodipodi:role="line">Identifiant des règles de contrôle [!]</tspan></text>
        <rect
           transform="matrix(0.69891616,0.71520361,-0.71520361,0.69891616,0,0)"
           ry="0.53678036"
           y="494.45572"
           x="342.99741"
           height="5.8482289"
           width="5.8482289"
           id="rect4604-28-6-2-4-4"
           style="opacity:1;fill:none;fill-opacity:1;stroke:#000000;stroke-width:0.49730435;stroke-linejoin:round;stroke-miterlimit:4;stroke-dasharray:none;stroke-dashoffset:0;stroke-opacity:1" />
      </g>
      <g
         id="g4887"
         transform="matrix(1.2155772,0.01294179,0.01294179,1.2161735,17.560926,-149.90079)">
        <text
           transform="matrix(0.69891616,0.71520361,-0.71520361,0.69891616,0,0)"
           sodipodi:linespacing="125%"
           id="text4202-9-7-3-8-0-5-5"
           y="502.05429"
           x="508.6348"
           style="font-style:normal;font-weight:normal;font-size:40px;line-height:125%;font-family:sans-serif;letter-spacing:0px;word-spacing:0px;fill:#000000;fill-opacity:1;stroke:none;stroke-width:1px;stroke-linecap:butt;stroke-linejoin:miter;stroke-opacity:1"
           xml:space="preserve"><tspan
             id="tspan4458-6-0-9"
             style="font-style:normal;font-variant:normal;font-weight:normal;font-stretch:normal;font-size:6.875px;font-family:'Nimbus Sans L';-inkscape-font-specification:'Nimbus Sans L'"
             y="502.05429"
             x="508.6348"
             sodipodi:role="line">Sortie console [Avertissement !]</tspan></text>
        <rect
           transform="matrix(0.69891616,0.71520361,-0.71520361,0.69891616,0,0)"
           ry="0.53678036"
           y="496.77713"
           x="499.9617"
           height="5.8482289"
           width="5.8482289"
           id="rect4604-28-6-2-4-3"
           style="opacity:1;fill:none;fill-opacity:1;stroke:#000000;stroke-width:0.49730435;stroke-linejoin:round;stroke-miterlimit:4;stroke-dasharray:none;stroke-dashoffset:0;stroke-opacity:1" />
      </g>
    </g>
    <flowRoot
       xml:space="preserve"
       id="flowRoot4892"
       style="font-style:normal;font-weight:normal;font-size:40px;line-height:125%;font-family:sans-serif;letter-spacing:0px;word-spacing:0px;fill:#000000;fill-opacity:1;stroke:none;stroke-width:1px;stroke-linecap:butt;stroke-linejoin:miter;stroke-opacity:1"
       transform="matrix(1.2341748,0,0,1.2012493,171.00549,617.08126)"><flowRegion
         id="flowRegion4894"><rect
           id="rect4896"
           width="281.83258"
           height="64.144684"
           x="-131.31982"
           y="108.24212" /></flowRegion><flowPara
         id="flowPara4898"
         style="font-style:normal;font-variant:normal;font-weight:bold;font-stretch:normal;font-size:7.5px;font-family:sans-serif;-inkscape-font-specification:'sans-serif Bold'">Typographie</flowPara></flowRoot>    <flowRoot
       xml:space="preserve"
       id="flowRoot4892-5"
       style="font-style:normal;font-weight:normal;font-size:40px;line-height:125%;font-family:sans-serif;letter-spacing:0px;word-spacing:0px;fill:#000000;fill-opacity:1;stroke:none;stroke-width:1px;stroke-linecap:butt;stroke-linejoin:miter;stroke-opacity:1"
       transform="matrix(1.2341748,0,0,1.2012493,170.4917,706.75884)"><flowRegion
         id="flowRegion4894-4"><rect
           id="rect4896-8"
           width="236.37572"
           height="19.697979"
           x="-131.31982"
           y="108.24212" /></flowRegion><flowPara
         id="flowPara4898-7"
         style="font-style:normal;font-variant:normal;font-weight:bold;font-stretch:normal;font-size:7.5px;font-family:sans-serif;-inkscape-font-specification:'sans-serif Bold'">Accords, pluriels et confusions</flowPara></flowRoot>    <flowRoot
       xml:space="preserve"
       id="flowRoot4892-3"
       style="font-style:normal;font-weight:normal;font-size:40px;line-height:125%;font-family:sans-serif;letter-spacing:0px;word-spacing:0px;fill:#000000;fill-opacity:1;stroke:none;stroke-width:1px;stroke-linecap:butt;stroke-linejoin:miter;stroke-opacity:1"
       transform="matrix(1.2341748,0,0,1.2012493,170.72825,748.84202)"><flowRegion
         id="flowRegion4894-3"><rect
           id="rect4896-5"
           width="281.83258"
           height="64.144684"
           x="-131.31982"
           y="108.24212" /></flowRegion><flowPara
         id="flowPara4898-0"
         style="font-style:normal;font-variant:normal;font-weight:bold;font-stretch:normal;font-size:7.5px;font-family:sans-serif;-inkscape-font-specification:'sans-serif Bold'">Verbes</flowPara></flowRoot>    <flowRoot
       xml:space="preserve"
       id="flowRoot4892-1"
       style="font-style:normal;font-weight:normal;font-size:40px;line-height:125%;font-family:sans-serif;letter-spacing:0px;word-spacing:0px;fill:#000000;fill-opacity:1;stroke:none;stroke-width:1px;stroke-linecap:butt;stroke-linejoin:miter;stroke-opacity:1"
       transform="matrix(1.2341748,0,0,1.2012493,171.11504,786.07339)"><flowRegion
         id="flowRegion4894-45"><rect
           id="rect4896-7"
           width="281.83258"
           height="64.144684"
           x="-131.31982"
           y="108.24212" /></flowRegion><flowPara
         id="flowPara4898-07"
         style="font-style:normal;font-variant:normal;font-weight:bold;font-stretch:normal;font-size:7.5px;font-family:sans-serif;-inkscape-font-specification:'sans-serif Bold'">Style</flowPara></flowRoot>    <flowRoot
       xml:space="preserve"
       id="flowRoot4892-8"
       style="font-style:normal;font-weight:normal;font-size:40px;line-height:125%;font-family:sans-serif;letter-spacing:0px;word-spacing:0px;fill:#000000;fill-opacity:1;stroke:none;stroke-width:1px;stroke-linecap:butt;stroke-linejoin:miter;stroke-opacity:1"
       transform="matrix(1.2341748,0,0,1.2012493,170.49168,835.86658)"><flowRegion
         id="flowRegion4894-9"><rect
           id="rect4896-9"
           width="281.83258"
           height="64.144684"
           x="-131.31982"
           y="108.24212" /></flowRegion><flowPara
         id="flowPara4898-3"
         style="font-style:normal;font-variant:normal;font-weight:bold;font-stretch:normal;font-size:7.5px;font-family:sans-serif;-inkscape-font-specification:'sans-serif Bold'">Divers</flowPara></flowRoot>    <flowRoot
       xml:space="preserve"
       id="flowRoot4892-9"
       style="font-style:normal;font-weight:normal;font-size:40px;line-height:125%;font-family:sans-serif;letter-spacing:0px;word-spacing:0px;fill:#000000;fill-opacity:1;stroke:none;stroke-width:1px;stroke-linecap:butt;stroke-linejoin:miter;stroke-opacity:1"
       transform="matrix(1.2341748,0,0,1.2012493,170.4917,863.45583)"><flowRegion
         id="flowRegion4894-46"><rect
           id="rect4896-4"
           width="281.83258"
           height="64.144684"
           x="-131.31982"
           y="108.24212" /></flowRegion><flowPara
         id="flowPara4898-5"
         style="font-style:normal;font-variant:normal;font-weight:bold;font-stretch:normal;font-size:7.5px;font-family:sans-serif;-inkscape-font-specification:'sans-serif Bold'">Débogage</flowPara></flowRoot>    <flowRoot
       xml:space="preserve"
       id="flowRoot4892-55"
       style="font-style:normal;font-weight:normal;font-size:40px;line-height:125%;font-family:sans-serif;letter-spacing:0px;word-spacing:0px;fill:#000000;fill-opacity:1;stroke:none;stroke-width:1px;stroke-linecap:butt;stroke-linejoin:miter;stroke-opacity:1"
       transform="matrix(1.0043572,0,0,0.99860273,184.82141,616.39861)"><flowRegion
         id="flowRegion4894-6"><rect
           id="rect4896-0"
           width="281.83258"
           height="64.144684"
           x="-131.31982"
           y="108.24212" /></flowRegion><flowPara
         id="flowPara4898-6"
         style="font-style:italic;font-variant:normal;font-weight:normal;font-stretch:normal;font-size:10px;font-family:sans-serif;-inkscape-font-specification:'sans-serif Italic'">Grammalecte - Options du contrôle grammatical</flowPara></flowRoot>    <text
       xml:space="preserve"
       style="font-style:normal;font-weight:normal;font-size:10.74901581px;line-height:125%;font-family:sans-serif;letter-spacing:0px;word-spacing:0px;fill:#000000;fill-opacity:1;stroke:none;stroke-width:1px;stroke-linecap:butt;stroke-linejoin:miter;stroke-opacity:1"
       x="46.619789"
       y="1041.2252"
       id="text4998"
       sodipodi:linespacing="125%"
       transform="scale(1.0028771,0.99713115)"><tspan
         sodipodi:role="line"
         id="tspan5000"
         x="46.619789"
         y="1041.2252"
         style="font-style:normal;font-variant:normal;font-weight:bold;font-stretch:normal;font-size:8.7629137px;font-family:sans-serif;-inkscape-font-specification:'sans-serif Bold'">Par défaut</tspan></text>
    <text
       xml:space="preserve"
       style="font-style:normal;font-weight:normal;font-size:10.74901581px;line-height:125%;font-family:sans-serif;letter-spacing:0px;word-spacing:0px;fill:#000000;fill-opacity:1;stroke:none;stroke-width:1px;stroke-linecap:butt;stroke-linejoin:miter;stroke-opacity:1"
       x="225.39847"
       y="1040.7198"
       id="text4998-6"
       sodipodi:linespacing="125%"
       transform="scale(1.0028771,0.99713115)"><tspan
         sodipodi:role="line"
         id="tspan5000-5"
         x="225.39847"
         y="1040.7198"
         style="font-style:normal;font-variant:normal;font-weight:bold;font-stretch:normal;font-size:8.7629137px;font-family:sans-serif;-inkscape-font-specification:'sans-serif Bold'">OK</tspan></text>
    <text
       xml:space="preserve"
       style="font-style:normal;font-weight:normal;font-size:10.74901581px;line-height:125%;font-family:sans-serif;letter-spacing:0px;word-spacing:0px;fill:#000000;fill-opacity:1;stroke:none;stroke-width:1px;stroke-linecap:butt;stroke-linejoin:miter;stroke-opacity:1"
       x="256.25363"
       y="1040.874"
       id="text4998-5"
       sodipodi:linespacing="125%"
       transform="scale(1.0028771,0.99713115)"><tspan
         sodipodi:role="line"
         id="tspan5000-3"
         x="256.25363"
         y="1040.874"
         style="font-style:normal;font-variant:normal;font-weight:bold;font-stretch:normal;font-size:8.7629137px;font-family:sans-serif;-inkscape-font-specification:'sans-serif Bold'">Annuler</tspan></text>
    <rect
       style="opacity:1;fill:none;fill-opacity:1;stroke:#000000;stroke-width:1.77426827;stroke-linejoin:round;stroke-miterlimit:4;stroke-dasharray:none;stroke-dashoffset:0;stroke-opacity:1"
       id="rect5040"
       width="21.305634"
       height="18.157339"
       x="223.69762"
       y="1025.2031"
       ry="1.5276924" />
    <rect
       style="opacity:1;fill:none;fill-opacity:1;stroke:#000000;stroke-width:1.77426827;stroke-linejoin:round;stroke-miterlimit:4;stroke-dasharray:none;stroke-dashoffset:0;stroke-opacity:1"
       id="rect5040-8"
       width="47.527706"
       height="17.49753"
       x="252.43695"
       y="1025.5331"
       ry="1.4721783" />
    <rect
       style="opacity:1;fill:none;fill-opacity:1;stroke:#000000;stroke-width:1.77426827;stroke-linejoin:round;stroke-miterlimit:4;stroke-dasharray:none;stroke-dashoffset:0;stroke-opacity:1"
       id="rect5040-8-6"
       width="60.466873"
       height="17.248926"
       x="42.802914"
       y="1026.1616"
       ry="1.4512619" />
  </g>
</svg>
